{
  "photos": {
    "page": 1,
    "pages": 45986,
    "perpage": 24,
    "total": "1103662",
    "photo": [
      {
        "id": "48968658493",
        "owner": "67098382@N07",
        "secret": "49b5823236",
        "server": "65535",
        "farm": 66,
        "title": "IMG_0749",
        "ispublic": 1,
        "isfriend": 0,
        "isfamily": 0
      },
      {
        "id": "48969201411",
        "owner": "67098382@N07",
        "secret": "f0cfcf1b36",
        "server": "65535",
        "farm": 66,
        "title": "IMG_0760",
        "ispublic": 1,
        "isfriend": 0,
        "isfamily": 0
      },
      {
        "id": "48969378402",
        "owner": "67098382@N07",
        "secret": "9146f37556",
        "server": "65535",
        "farm": 66,
        "title": "IMG_0765",
        "ispublic": 1,
        "isfriend": 0,
        "isfamily": 0
      },
      {
        "id": "48969378142",
        "owner": "67098382@N07",
        "secret": "df2208aa36",
        "server": "65535",
        "farm": 66,
        "title": "IMG_0770",
        "ispublic": 1,
        "isfriend": 0,
        "isfamily": 0
      },
      {
        "id": "48969200791",
        "owner": "67098382@N07",
        "secret": "d6ec315285",
        "server": "65535",
        "farm": 66,
        "title": "IMG_0772",
        "ispublic": 1,
        "isfriend": 0,
        "isfamily": 0
      },
      {
        "id": "48968657113",
        "owner": "67098382@N07",
        "secret": "516f47c2ec",
        "server": "65535",
        "farm": 66,
        "title": "IMG_0747",
        "ispublic": 1,
        "isfriend": 0,
        "isfamily": 0
      },
      {
        "id": "48969377422",
        "owner": "67098382@N07",
        "secret": "bf3e8fdeb1",
        "server": "65535",
        "farm": 66,
        "title": "IMG_0773",
        "ispublic": 1,
        "isfriend": 0,
        "isfamily": 0
      },
      {
        "id": "48968656483",
        "owner": "67098382@N07",
        "secret": "d78ba85fa6",
        "server": "65535",
        "farm": 66,
        "title": "IMG_0788",
        "ispublic": 1,
        "isfriend": 0,
        "isfamily": 0
      },
      {
        "id": "48969376877",
        "owner": "67098382@N07",
        "secret": "3836075567",
        "server": "65535",
        "farm": 66,
        "title": "IMG_0796",
        "ispublic": 1,
        "isfriend": 0,
        "isfamily": 0
      },
      {
        "id": "48968655818",
        "owner": "67098382@N07",
        "secret": "53d45f38f3",
        "server": "65535",
        "farm": 66,
        "title": "IMG_0806",
        "ispublic": 1,
        "isfriend": 0,
        "isfamily": 0
      },
      {
        "id": "48969376252",
        "owner": "67098382@N07",
        "secret": "0076982095",
        "server": "65535",
        "farm": 66,
        "title": "IMG_0823",
        "ispublic": 1,
        "isfriend": 0,
        "isfamily": 0
      },
      {
        "id": "48969375942",
        "owner": "67098382@N07",
        "secret": "0462ac53ec",
        "server": "65535",
        "farm": 66,
        "title": "IMG_0824",
        "ispublic": 1,
        "isfriend": 0,
        "isfamily": 0
      },
      {
        "id": "48969198546",
        "owner": "67098382@N07",
        "secret": "e50bca10c7",
        "server": "65535",
        "farm": 66,
        "title": "IMG_0829",
        "ispublic": 1,
        "isfriend": 0,
        "isfamily": 0
      },
      {
        "id": "48968654968",
        "owner": "67098382@N07",
        "secret": "5514a4ff37",
        "server": "65535",
        "farm": 66,
        "title": "IMG_0834",
        "ispublic": 1,
        "isfriend": 0,
        "isfamily": 0
      },
      {
        "id": "48969198171",
        "owner": "67098382@N07",
        "secret": "5e6dd76ea0",
        "server": "65535",
        "farm": 66,
        "title": "IMG_0838",
        "ispublic": 1,
        "isfriend": 0,
        "isfamily": 0
      },
      {
        "id": "48968654643",
        "owner": "67098382@N07",
        "secret": "9d0b70a28f",
        "server": "65535",
        "farm": 66,
        "title": "IMG_0842",
        "ispublic": 1,
        "isfriend": 0,
        "isfamily": 0
      },
      {
        "id": "48968654473",
        "owner": "67098382@N07",
        "secret": "6843573af9",
        "server": "65535",
        "farm": 66,
        "title": "IMG_0843",
        "ispublic": 1,
        "isfriend": 0,
        "isfamily": 0
      },
      {
        "id": "48968654228",
        "owner": "67098382@N07",
        "secret": "cef6996b9b",
        "server": "65535",
        "farm": 66,
        "title": "IMG_0844",
        "ispublic": 1,
        "isfriend": 0,
        "isfamily": 0
      },
      {
        "id": "48969197356",
        "owner": "67098382@N07",
        "secret": "78c61f7bea",
        "server": "65535",
        "farm": 66,
        "title": "IMG_0851",
        "ispublic": 1,
        "isfriend": 0,
        "isfamily": 0
      },
      {
        "id": "48969197156",
        "owner": "67098382@N07",
        "secret": "1ca1332fb1",
        "server": "65535",
        "farm": 66,
        "title": "IMG_0877",
        "ispublic": 1,
        "isfriend": 0,
        "isfamily": 0
      },
      {
        "id": "48969196911",
        "owner": "67098382@N07",
        "secret": "415b261dda",
        "server": "65535",
        "farm": 66,
        "title": "IMG_0878",
        "ispublic": 1,
        "isfriend": 0,
        "isfamily": 0
      },
      {
        "id": "48969196516",
        "owner": "67098382@N07",
        "secret": "751a4215b8",
        "server": "65535",
        "farm": 66,
        "title": "IMG_0892",
        "ispublic": 1,
        "isfriend": 0,
        "isfamily": 0
      },
      {
        "id": "48969097052",
        "owner": "127326911@N02",
        "secret": "b030a1734f",
        "server": "65535",
        "farm": 66,
        "title": "GCCF Supreme Cat Show 2019",
        "ispublic": 1,
        "isfriend": 0,
        "isfamily": 0
      },
      {
        "id": "48967814917",
        "owner": "8740272@N04",
        "secret": "0626c44d20",
        "server": "65535",
        "farm": 66,
        "title": "Ziva \u2663",
        "ispublic": 1,
        "isfriend": 0,
        "isfamily": 0
      }
    ]
  },
  "stat": "ok"
}
